…
for (i in 1:length(filenames)) {
  # read each file and append to df_local
  tmp <- read_csv(paste(localpath, filenames[i], sep = ''), col_types = cols(.default = 'c', 'Poll Time' = 't'),  show_col_types = FALSE)

  # if needed, process tmp data frame here before appending

  # append tmp data frame to df_local
  df_local <- rbind(df_local, tmp)
}
df_local
```

```
# A tibble: 31 x 21
   `Poll Date` `Poll Time` Site  POS1  POS2  POS3  POS4  POS5  POS6  POS7  POS8 
   <chr>       <time>      <chr> <chr> <chr> <chr> <chr> <chr> <chr> <chr> <chr>
 1 09/28/2021  05:58:11    00101 OK    OK    OK    OK    <NA>  <NA>  <NA>  <NA> 
 2 09/28/2021  05:58:45    00102 OK    OK    OK    OK    <NA>  <NA>  <NA>  <NA> 
 3 09/28/2021  05:58:10    00103 OK    OK    OK    OK    <NA>  <NA>  <NA>  <NA> 
 4 09/28/2021  05:58:02    00105 OK    OK    OK    OK    <NA>  <NA>  <NA>  <NA> 
 5 09/28/2021  05:58:00    00106 OK    OK    OK    OK    <NA>  <NA>  <NA>  <NA> 
 6 09/28/2021  05:58:00    00107 OK    OK    OK    OK    <NA>  <NA>  <NA>  <NA> 
 7 09/28/2021  05:58:31    00108 OK    OK    OK    OK    <NA>  OK    <NA>  OK   
 8 09/28/2021  05:58:05    00110 OK    OK    OK    OK    <NA>  <NA>  <NA>  <NA> 
 9 09/28/2021  05:58:07    00111 OK    OK    OK    OK    <NA>  <NA>  <NA>  <NA> 
10 09/28/2021  05:58:03    00112 OK    OK    OK    OK    <NA>  <NA>  <NA>  <NA> 
# ... with 21 more rows, and 10 more variables: POS9 <chr>, KC1 <chr>,
#   KC2 <chr>, KC3 <chr>, KC4 <chr>, KC5 <chr>, KC6 <chr>, KC7 <chr>,
#   KC8 <chr>, KC9 <chr>
```
…
df_web <- tibble()
for (i in 1:nrow(selected_files)) {
  # read each file and append to df_local
  tmp <- read_csv(selected_files$download_url[i], col_types = cols(.default = 'c', 'Poll Time' = 't'), show_col_types = FALSE)
  
  # if needed, process tmp data frame here before appending

  # append tmp data frame to df_web
  df_web <- rbind(df_web, tmp)
}
df_web
```

```
# A tibble: 31 x 21
   `Poll Date` `Poll Time` Site  POS1  POS2  POS3  POS4  POS5  POS6  POS7  POS8 
   <chr>       <time>      <chr> <chr> <chr> <chr> <chr> <chr> <chr> <chr> <chr>
 1 09/28/2021  05:58:11    00101 OK    OK    OK    OK    <NA>  <NA>  <NA>  <NA> 
 2 09/28/2021  05:58:45    00102 OK    OK    OK    OK    <NA>  <NA>  <NA>  <NA> 
 3 09/28/2021  05:58:10    00103 OK    OK    OK    OK    <NA>  <NA>  <NA>  <NA> 
 4 09/28/2021  05:58:02    00105 OK    OK    OK    OK    <NA>  <NA>  <NA>  <NA> 
 5 09/28/2021  05:58:00    00106 OK    OK    OK    OK    <NA>  <NA>  <NA>  <NA> 
 6 09/28/2021  05:58:00    00107 OK    OK    OK    OK    <NA>  <NA>  <NA>  <NA> 
 7 09/28/2021  05:58:31    00108 OK    OK    OK    OK    <NA>  OK    <NA>  OK   
 8 09/28/2021  05:58:05    00110 OK    OK    OK    OK    <NA>  <NA>  <NA>  <NA> 
 9 09/28/2021  05:58:07    00111 OK    OK    OK    OK    <NA>  <NA>  <NA>  <NA> 
10 09/28/2021  05:58:03    00112 OK    OK    OK    OK    <NA>  <NA>  <NA>  <NA> 
# ... with 21 more rows, and 10 more variables: POS9 <chr>, KC1 <chr>,
#   KC2 <chr>, KC3 <chr>, KC4 <chr>, KC5 <chr>, KC6 <chr>, KC7 <chr>,
#   KC8 <chr>, KC9 <chr>
```
…
