DATA607 - Assignment Week 10
…
Recreate Sentiment Analysis

Recreate the sentiment analysis from Chapter 2 in Text Mining with R: A Tidy Approach. (Silge and Robinson 2017)

Sentiment Lexicons

A sentiment lexicon is a set of words and a sentiment score that is attributed to each word.

AFINN-111

The AFINN sentiment lexicon scores words on a scale of -5 (negative sentiment) to 5 (positive sentiment). (Nielsen 2011)

get_sentiments("afinn")

## # A tibble: 2,477 x 2
##    word       value
##    <chr>      <dbl>
##  1 abandon       -2
##  2 abandoned     -2
##  3 abandons      -2
##  4 abducted      -2
##  5 abduction     -2
##  6 abductions    -2
##  7 abhor         -3
##  8 abhorred      -3
##  9 abhorrent     -3
## 10 abhors        -3
## # ... with 2,467 more rows

Bing

The Bing sentiment lexicon assigns words as either positive or negative. (Hu and Liu 2004)

get_sentiments("bing")

## # A tibble: 6,786 x 2
##    word        sentiment
##    <chr>       <chr>    
##  1 2-faces     negative 
##  2 abnormal    negative 
##  3 abolish     negative 
##  4 abominable  negative 
##  5 abominably  negative 
##  6 abominate   negative 
##  7 abomination negative 
##  8 abort       negative 
##  9 aborted     negative 
## 10 aborts      negative 
## # ... with 6,776 more rows

NRC Word-Emotion Association Lexicon

The nrc sentiment lexicon classifies words as positive or negative, but also by emotions such as fear or anger. (Mohammad and Turney 2013)

get_sentiments("nrc")

## # A tibble: 13,875 x 2
##    word        sentiment
##    <chr>       <chr>    
##  1 abacus      trust    
##  2 abandon     fear     
##  3 abandon     negative 
##  4 abandon     sadness  
##  5 abandoned   anger    
##  6 abandoned   fear     
##  7 abandoned   negative 
##  8 abandoned   sadness  
##  9 abandonment anger    
## 10 abandonment fear     
## # ... with 13,865 more rows
…
Custom Stop Words

The word miss is contributing significantly towards negative sentiment, but its use within Jane Austens books isnt used in that context. Create a custom stop word list to adjust for anomalies in the sentiment lexicon used.

custom_stop_words <- bind_rows(tibble(word = c('miss'), lexicon = c('custom')), stop_words)

custom_stop_words

## # A tibble: 1,150 x 2
##    word        lexicon
##    <chr>       <chr>  
##  1 miss        custom 
##  2 a           SMART  
##  3 a's         SMART  
##  4 able        SMART  
##  5 about       SMART  
##  6 above       SMART  
##  7 according   SMART  
##  8 accordingly SMART  
##  9 across      SMART  
## 10 actually    SMART  
## # ... with 1,140 more rows
…
